<svg 
 xmlns="http://www.w3.org/2000/svg"
 xmlns:xlink="http://www.w3.org/1999/xlink"
 width="5px" height="19px">
<path fill-rule="evenodd"  fill="rgb(24, 166, 81)"
 d="M2.500,7.000 C3.881,7.000 5.000,8.119 5.000,9.500 L5.000,16.500 C5.000,17.881 3.881,19.000 2.500,19.000 C1.119,19.000 -0.000,17.881 -0.000,16.500 L-0.000,9.500 C-0.000,8.119 1.119,7.000 2.500,7.000 Z"/>
<path fill-rule="evenodd"  fill="rgb(24, 166, 81)"
 d="M2.500,-0.000 C3.881,-0.000 5.000,1.119 5.000,2.500 C5.000,3.881 3.881,5.000 2.500,5.000 C1.119,5.000 -0.000,3.881 -0.000,2.500 C-0.000,1.119 1.119,-0.000 2.500,-0.000 Z"/>
</svg>